[04:47:53 Information] 
Starting web host

[04:48:03 Information] Microsoft.Hosting.Lifetime
Now listening on: https://localhost:5001

[04:48:03 Information] Microsoft.Hosting.Lifetime
Now listening on: http://localhost:5000

[04:48:03 Information] Microsoft.Hosting.Lifetime
Application started. Press Ctrl+C to shut down.

[04:48:03 Information] Microsoft.Hosting.Lifetime
Hosting environment: Development

[04:48:03 Information] Microsoft.Hosting.Lifetime
Content root path: C:\Users\Putul\source\repos\WebApiBoilerplate\WebApiBoilerplate

[04:48:47 Information] 
Request: https localhost:5001/WeatherForecast 

[04:49:55 Information] 
Request: https localhost:5001/WeatherForecast 

[04:52:24 Information] 
Starting web host

[04:53:22 Information] Microsoft.Hosting.Lifetime
Now listening on: https://localhost:5001

[04:53:22 Information] Microsoft.Hosting.Lifetime
Now listening on: http://localhost:5000

[04:53:22 Information] Microsoft.Hosting.Lifetime
Application started. Press Ctrl+C to shut down.

[04:53:22 Information] Microsoft.Hosting.Lifetime
Hosting environment: Development

[04:53:22 Information] Microsoft.Hosting.Lifetime
Content root path: C:\Users\Putul\source\repos\WebApiBoilerplate\WebApiBoilerplate

[04:53:36 Information] 
Request: https localhost:5001/WeatherForecast 

[04:53:36 Information] 
Request Method: GET

[04:53:36 Information] 
Request Body: 

[04:53:36 Information] 
Response Body: 401: {"StatusCode":401,"Message":"Attempted to perform an unauthorized operation."}

[04:53:48 Information] 
Request: https localhost:5001/WeatherForecast 

[04:53:48 Information] 
Request Method: GET

[04:53:48 Information] 
Request Body: 

[04:53:48 Information] 
Response Body: 401: {"StatusCode":401,"Message":"Attempted to perform an unauthorized operation."}

[04:54:04 Information] 
Request: https localhost:5001/WeatherForecast 

[04:54:04 Information] 
Request Method: GET

[04:54:04 Information] 
Request Body: 

[04:54:04 Information] 
Executing Sample API at controller level

[04:54:05 Information] 
Response Body: 200: [{"date":"2021-01-21T04:54:04.9880619+05:30","temperatureC":45,"temperatureF":112,"summary":"Hot"},{"date":"2021-01-22T04:54:04.9891423+05:30","temperatureC":46,"temperatureF":114,"summary":"Warm"},{"date":"2021-01-23T04:54:04.9891573+05:30","temperatureC":15,"temperatureF":58,"summary":"Sweltering"},{"date":"2021-01-24T04:54:04.9891586+05:30","temperatureC":38,"temperatureF":100,"summary":"Cool"},{"date":"2021-01-25T04:54:04.9891595+05:30","temperatureC":11,"temperatureF":51,"summary":"Chilly"}]

